WstÄ™p do analizy danych
…
zamieszkanie <- factor(Dane3_na_osobe$Regione)
is.factor(zamieszkanie) #TRUE

## [1] TRUE

typ_rodziny <- factor(Dane3_na_osobe$TIPFAM)
is.factor(typ_rodziny) #TRUE

## [1] TRUE

wyksztalcenie <-factor(Dane3_na_osobe$Conprof1)
zamieszkanie %>% as.factor() %>% as_tibble()

## # A tibble: 23,074 x 1
##    value
##    <fct>
##  1 7    
##  2 3    
##  3 7    
##  4 15   
##  5 10   
##  6 15   
##  7 12   
##  8 9    
##  9 1    
## 10 3    
## # â€¦ with 23,064 more rows
…
